  0.0868  -0.4433   0.0000
 -0.1510   0.6896   0.0000
 -0.9906  -0.7569   0.0000
  0.3415   0.6517   0.0000
 -0.7266   0.1502   0.0000
  0.7826  -0.5816   0.0000
 -0.6293  -0.7832   0.0000
 -0.5606   0.9572   0.0000
  0.6234  -0.6561   0.0000
  0.6324  -0.4519   0.0000
 -0.1366   0.8801   0.0000
  0.6353  -0.3278   0.0000
 -0.6492  -0.2543   0.0000
 -0.9886  -0.4951   0.0000
  0.5913  -0.9695   0.0000
  0.1977   0.2076   0.0000
 -0.7897  -0.2361   0.0000
 -0.9270   0.7808   0.0000
  0.9618  -0.8801   0.0000
  0.7811   0.1538   0.0000
  0.4850   0.2604   0.0000
  0.1637  -0.9591   0.0000
 -0.5799   0.0894   0.0000
  0.5382  -0.4986   0.0000
 -0.4282   0.7048   0.0000
  0.9500   0.7697   0.0000
 -0.2810   0.1977   0.0000
 -0.2904  -0.3196   0.0000
 -0.6438  -0.5246   0.0000
 -0.9103   0.0109   0.0000
 -0.2475   0.1856   0.0000
  0.2599  -0.7148   0.0000
  0.8677   0.8928   0.0000
  0.2046  -0.2245   0.0000
 -0.2736  -0.5913   0.0000
 -0.4465  -0.5069   0.0000
 -0.6528   0.9332   0.0000
  0.9140   0.1959   0.0000
  0.4626  -0.3192   0.0000
 -0.8159  -0.0730   0.0000
  0.0174  -0.8231   0.0000
  0.0561   0.9843   0.0000
 -0.2099  -0.3288   0.0000
  0.6109   0.5087   0.0000
 -0.3739   0.2681   0.0000
  0.0808  -0.4064   0.0000
 -0.7784  -0.3747   0.0000
 -0.0860   0.3179   0.0000
 -0.4915   0.2822   0.0000
 -0.5998   0.3152   0.0000


  0.0868  -0.4433   0.0000    0.0808  -0.4064   0.0000
 -0.1510   0.6896   0.0000   -0.1366   0.8801   0.0000
 -0.1510   0.6896   0.0000   -0.4282   0.7048   0.0000
 -0.9906  -0.7569   0.0000   -0.9886  -0.4951   0.0000
  0.3415   0.6517   0.0000    0.6109   0.5087   0.0000
 -0.7266   0.1502   0.0000   -0.5799   0.0894   0.0000
  0.7826  -0.5816   0.0000    0.6234  -0.6561   0.0000
  0.7826  -0.5816   0.0000    0.9618  -0.8801   0.0000
 -0.6293  -0.7832   0.0000   -0.6438  -0.5246   0.0000
 -0.5606   0.9572   0.0000   -0.6528   0.9332   0.0000
  0.6234  -0.6561   0.0000    0.5913  -0.9695   0.0000
  0.6324  -0.4519   0.0000    0.6353  -0.3278   0.0000
  0.6324  -0.4519   0.0000    0.5382  -0.4986   0.0000
 -0.1366   0.8801   0.0000    0.0561   0.9843   0.0000
  0.6353  -0.3278   0.0000    0.4626  -0.3192   0.0000
 -0.6492  -0.2543   0.0000   -0.7897  -0.2361   0.0000
 -0.9886  -0.4951   0.0000   -0.7784  -0.3747   0.0000
  0.1977   0.2076   0.0000    0.4850   0.2604   0.0000
 -0.7897  -0.2361   0.0000   -0.7784  -0.3747   0.0000
 -0.9270   0.7808   0.0000   -0.6528   0.9332   0.0000
  0.7811   0.1538   0.0000    0.9140   0.1959   0.0000
  0.4850   0.2604   0.0000    0.6109   0.5087   0.0000
  0.1637  -0.9591   0.0000    0.2599  -0.7148   0.0000
  0.1637  -0.9591   0.0000    0.0174  -0.8231   0.0000
  0.9500   0.7697   0.0000    0.8677   0.8928   0.0000
 -0.2810   0.1977   0.0000   -0.2475   0.1856   0.0000
 -0.2810   0.1977   0.0000   -0.3739   0.2681   0.0000
 -0.2904  -0.3196   0.0000   -0.2099  -0.3288   0.0000
 -0.6438  -0.5246   0.0000   -0.4465  -0.5069   0.0000
 -0.9103   0.0109   0.0000   -0.8159  -0.0730   0.0000
 -0.2475   0.1856   0.0000   -0.0860   0.3179   0.0000
  0.2046  -0.2245   0.0000    0.0808  -0.4064   0.0000
 -0.2736  -0.5913   0.0000   -0.4465  -0.5069   0.0000
 -0.4915   0.2822   0.0000   -0.5998   0.3152   0.0000


  0.0868  -0.4433   0.0000    0.2599  -0.7148   0.0000
  0.0868  -0.4433   0.0000    0.2046  -0.2245   0.0000
  0.0868  -0.4433   0.0000   -0.2099  -0.3288   0.0000
  0.0868  -0.4433   0.0000    0.0808  -0.4064   0.0000
 -0.1510   0.6896   0.0000   -0.1366   0.8801   0.0000
 -0.1510   0.6896   0.0000   -0.4282   0.7048   0.0000
 -0.1510   0.6896   0.0000    0.0561   0.9843   0.0000
 -0.9906  -0.7569   0.0000   -0.6293  -0.7832   0.0000
 -0.9906  -0.7569   0.0000   -0.9886  -0.4951   0.0000
 -0.9906  -0.7569   0.0000   -0.6438  -0.5246   0.0000
  0.3415   0.6517   0.0000    0.4850   0.2604   0.0000
  0.3415   0.6517   0.0000    0.8677   0.8928   0.0000
  0.3415   0.6517   0.0000    0.0561   0.9843   0.0000
  0.3415   0.6517   0.0000    0.6109   0.5087   0.0000
 -0.7266   0.1502   0.0000   -0.5799   0.0894   0.0000
 -0.7266   0.1502   0.0000   -0.9103   0.0109   0.0000
 -0.7266   0.1502   0.0000   -0.8159  -0.0730   0.0000
 -0.7266   0.1502   0.0000   -0.5998   0.3152   0.0000
  0.7826  -0.5816   0.0000    0.6234  -0.6561   0.0000
  0.7826  -0.5816   0.0000    0.6324  -0.4519   0.0000
  0.7826  -0.5816   0.0000    0.9618  -0.8801   0.0000
  0.7826  -0.5816   0.0000    0.5382  -0.4986   0.0000
 -0.6293  -0.7832   0.0000   -0.6438  -0.5246   0.0000
 -0.6293  -0.7832   0.0000   -0.4465  -0.5069   0.0000
 -0.5606   0.9572   0.0000   -0.9270   0.7808   0.0000
 -0.5606   0.9572   0.0000   -0.4282   0.7048   0.0000
 -0.5606   0.9572   0.0000   -0.6528   0.9332   0.0000
  0.6234  -0.6561   0.0000    0.6324  -0.4519   0.0000
  0.6234  -0.6561   0.0000    0.5913  -0.9695   0.0000
  0.6234  -0.6561   0.0000    0.9618  -0.8801   0.0000
  0.6234  -0.6561   0.0000    0.5382  -0.4986   0.0000
  0.6324  -0.4519   0.0000    0.6353  -0.3278   0.0000
  0.6324  -0.4519   0.0000    0.5382  -0.4986   0.0000
  0.6324  -0.4519   0.0000    0.4626  -0.3192   0.0000
 -0.1366   0.8801   0.0000   -0.4282   0.7048   0.0000
 -0.1366   0.8801   0.0000    0.0561   0.9843   0.0000
  0.6353  -0.3278   0.0000    0.5382  -0.4986   0.0000
  0.6353  -0.3278   0.0000    0.4626  -0.3192   0.0000
 -0.6492  -0.2543   0.0000   -0.7897  -0.2361   0.0000
 -0.6492  -0.2543   0.0000   -0.8159  -0.0730   0.0000
 -0.6492  -0.2543   0.0000   -0.7784  -0.3747   0.0000
 -0.9886  -0.4951   0.0000   -0.7897  -0.2361   0.0000
 -0.9886  -0.4951   0.0000   -0.7784  -0.3747   0.0000
  0.5913  -0.9695   0.0000    0.9618  -0.8801   0.0000
  0.5913  -0.9695   0.0000    0.1637  -0.9591   0.0000
  0.5913  -0.9695   0.0000    0.2599  -0.7148   0.0000
  0.1977   0.2076   0.0000    0.4850   0.2604   0.0000
  0.1977   0.2076   0.0000    0.2046  -0.2245   0.0000
  0.1977   0.2076   0.0000   -0.0860   0.3179   0.0000
 -0.7897  -0.2361   0.0000   -0.9103   0.0109   0.0000
 -0.7897  -0.2361   0.0000   -0.8159  -0.0730   0.0000
 -0.7897  -0.2361   0.0000   -0.7784  -0.3747   0.0000
 -0.9270   0.7808   0.0000   -0.4282   0.7048   0.0000
 -0.9270   0.7808   0.0000   -0.6528   0.9332   0.0000
  0.7811   0.1538   0.0000    0.4850   0.2604   0.0000
  0.7811   0.1538   0.0000    0.9140   0.1959   0.0000
  0.7811   0.1538   0.0000    0.6109   0.5087   0.0000
  0.4850   0.2604   0.0000    0.9140   0.1959   0.0000
  0.4850   0.2604   0.0000    0.6109   0.5087   0.0000
  0.1637  -0.9591   0.0000    0.2599  -0.7148   0.0000
  0.1637  -0.9591   0.0000    0.0174  -0.8231   0.0000
 -0.5799   0.0894   0.0000   -0.4915   0.2822   0.0000
 -0.5799   0.0894   0.0000   -0.5998   0.3152   0.0000
  0.5382  -0.4986   0.0000    0.4626  -0.3192   0.0000
 -0.4282   0.7048   0.0000   -0.6528   0.9332   0.0000
  0.9500   0.7697   0.0000    0.8677   0.8928   0.0000
  0.9500   0.7697   0.0000    0.9140   0.1959   0.0000
  0.9500   0.7697   0.0000    0.6109   0.5087   0.0000
 -0.2810   0.1977   0.0000   -0.2475   0.1856   0.0000
 -0.2810   0.1977   0.0000   -0.3739   0.2681   0.0000
 -0.2810   0.1977   0.0000   -0.0860   0.3179   0.0000
 -0.2810   0.1977   0.0000   -0.4915   0.2822   0.0000
 -0.2904  -0.3196   0.0000   -0.2736  -0.5913   0.0000
 -0.2904  -0.3196   0.0000   -0.4465  -0.5069   0.0000
 -0.2904  -0.3196   0.0000   -0.2099  -0.3288   0.0000
 -0.6438  -0.5246   0.0000   -0.4465  -0.5069   0.0000
 -0.6438  -0.5246   0.0000   -0.7784  -0.3747   0.0000
 -0.9103   0.0109   0.0000   -0.8159  -0.0730   0.0000
 -0.2475   0.1856   0.0000   -0.3739   0.2681   0.0000
 -0.2475   0.1856   0.0000   -0.0860   0.3179   0.0000
  0.2599  -0.7148   0.0000    0.0174  -0.8231   0.0000
  0.8677   0.8928   0.0000    0.6109   0.5087   0.0000
  0.2046  -0.2245   0.0000    0.4626  -0.3192   0.0000
  0.2046  -0.2245   0.0000    0.0808  -0.4064   0.0000
 -0.2736  -0.5913   0.0000   -0.4465  -0.5069   0.0000
 -0.2736  -0.5913   0.0000    0.0174  -0.8231   0.0000
 -0.2736  -0.5913   0.0000   -0.2099  -0.3288   0.0000
 -0.4465  -0.5069   0.0000   -0.2099  -0.3288   0.0000
  0.9140   0.1959   0.0000    0.6109   0.5087   0.0000
 -0.2099  -0.3288   0.0000    0.0808  -0.4064   0.0000
 -0.3739   0.2681   0.0000   -0.0860   0.3179   0.0000
 -0.3739   0.2681   0.0000   -0.4915   0.2822   0.0000
 -0.4915   0.2822   0.0000   -0.5998   0.3152   0.0000
